 [
  { "TargetAudience" : {
    "propertyName" : "targetAudience",
    "value" : "adult",
    "language" : "",
    "sourceFormat" : "yt",
    "fragmentIdentifier" : "",
    "mappingType" : "more specific",
    "audienceLink" : "",
    "audienceLabel" : "adult",
    "classificationSystemLink" : "",
    "classificationSystemLabel" : "",
    "statusCode" : 200
    } 
  }
  ]