[ 
  { "Collection" : {
    "propertyName" : "collection",
    "value" : "Dublin Core metadata image",
    "language" : "",
    "sourceFormat" : "dc",
    "fragmentIdentifier" : "",
    "mappingType" : "related",
    "statusCode" : 200
    } 
  }
]