[ 

  { "Contributor" : {
    "propertyName" : "contributor",
    "value" : "The Dublin Core Task Force",
    "language" : "",
    "sourceFormat" : "dc",
    "fragmentIdentifier" : "",
    "mappingType" : "exact",
    "contributorLabel" : "The Dublin Core Task Force",
    "contributorLink" : "",
    "roleLabel" : "contributer",
    "roleLink" : "",
    "statusCode" : 200
    } 
  }
]