[ 
  { "Title" : {
    "propertyName" : "title",
    "value" : "Dublin Core Tutorial",
    "language" : "en",
    "sourceFormat" : "dc",
    "fragmentIdentifier" : "",
    "mappingType" : "exact",
    "titleLabel" : "Dublin Core Tutorial",
    "typeLink" : "",
    "typeLabel" : "",
    "statusCode" : 200
    } 
  }
]